<svg width="36" height="36" viewBox="0 0 36 36" fill="none" xmlns="http://www.w3.org/2000/svg">
<path d="M16.7383 16.3282V14.6564C16.7383 13.9913 17.0025 13.3535 17.4728 12.8832C17.9431 12.4129 18.581 12.1487 19.2461 12.1487C19.9112 12.1487 20.549 12.4129 21.0193 12.8832C21.4896 13.3535 21.7538 13.9913 21.7538 14.6564V17.1641" stroke="#038C65" stroke-width="3" stroke-linecap="round" stroke-linejoin="round"/>
<path d="M26.7693 17.1641V6.29729C26.7693 5.63219 27.0335 4.99434 27.5038 4.52405C27.9741 4.05376 28.6119 3.78955 29.277 3.78955C29.9421 3.78955 30.58 4.05376 31.0503 4.52405C31.5205 4.99434 31.7848 5.63219 31.7848 6.29729V23.8514C31.7848 26.5118 30.7279 29.0632 28.8468 30.9444C26.9656 32.8255 24.4142 33.8824 21.7538 33.8824H18.4102H18.7579C17.0967 33.8826 15.4614 33.4703 13.9989 32.6825C12.5364 31.8946 11.2924 30.7558 10.3787 29.3684C10.2691 29.2015 10.1599 29.0344 10.0511 28.8669C9.52945 28.0661 7.6988 24.8746 4.55745 19.2907C4.23721 18.7215 4.15167 18.0498 4.31902 17.4185C4.48637 16.7872 4.8934 16.2461 5.45355 15.9103C6.05018 15.5523 6.74933 15.4039 7.43994 15.4887C8.13055 15.5735 8.77302 15.8867 9.2653 16.3784L11.7229 18.836" stroke="#038C65" stroke-width="3" stroke-linecap="round" stroke-linejoin="round"/>
<path d="M21.7538 14.6564C21.7538 13.9913 22.018 13.3535 22.4883 12.8832C22.9586 12.4129 23.5964 12.1487 24.2615 12.1487C24.9266 12.1487 25.5645 12.4129 26.0348 12.8832C26.505 13.3535 26.7693 13.9913 26.7693 14.6564V17.1641" stroke="#038C65" stroke-width="3" stroke-linecap="round" stroke-linejoin="round"/>
<path d="M11.7229 18.8359V4.62541C11.7229 3.96032 11.9871 3.32247 12.4574 2.85217C12.9277 2.38188 13.5655 2.11768 14.2306 2.11768C14.8957 2.11768 15.5336 2.38188 16.0039 2.85217C16.4742 3.32247 16.7384 3.96032 16.7384 4.62541V17.1641" stroke="#038C65" stroke-width="3" stroke-linecap="round" stroke-linejoin="round"/>
</svg>
