<svg width="36" height="36" viewBox="0 0 36 36" fill="none" xmlns="http://www.w3.org/2000/svg">
<path d="M18 32.8104C16.9073 31.8688 15.6723 30.8893 14.3661 29.8472H14.3492C9.74967 26.1926 4.53688 22.0573 2.23457 17.1021C1.479 15.525 1.07749 13.8097 1.05886 12.068C1.05635 10.886 1.2969 9.71536 1.76639 8.62493C2.23588 7.5345 2.92485 6.54622 3.79283 5.7181C4.66082 4.88999 5.69033 4.23875 6.8209 3.80261C7.95148 3.36647 9.16034 3.15424 10.3765 3.17836C12.3766 3.18143 14.3337 3.74315 16.0145 4.7966C16.7531 5.26243 17.4213 5.82591 18 6.47081C18.5828 5.82878 19.2503 5.26577 19.9872 4.7966C21.6673 3.74294 23.6239 3.18119 25.6235 3.17836C26.8397 3.15424 28.0485 3.36647 29.1791 3.80261C30.3097 4.23875 31.3392 4.88999 32.2072 5.7181C33.0752 6.54622 33.7641 7.5345 34.2336 8.62493C34.7031 9.71536 34.9437 10.886 34.9412 12.068C34.9239 13.811 34.523 15.5303 33.7655 17.1104C31.4632 22.0655 26.2521 26.1992 21.6525 29.8472L21.6356 29.8604C20.3277 30.8958 19.0944 31.8753 18.0017 32.8236L18 32.8104ZM10.3765 6.47081C8.79844 6.45162 7.27638 7.0385 6.1412 8.10387C5.59986 8.62058 5.17093 9.23777 4.8799 9.91875C4.58887 10.5997 4.44168 11.3306 4.44709 12.068C4.46572 13.3356 4.76219 14.5867 5.31448 15.7358C6.4013 17.8737 7.86772 19.8086 9.64633 21.4515C11.3252 23.0977 13.2565 24.6912 14.9269 26.0312C15.3894 26.4016 15.8603 26.7753 16.3313 27.149L16.6278 27.3844C17.0801 27.7433 17.5477 28.1154 18 28.4808L18.022 28.4611L18.0322 28.4528H18.0424L18.0576 28.4413H18.0746L18.1051 28.4166L18.1745 28.3623L18.1864 28.3524L18.205 28.3393H18.2152L18.2304 28.3261L19.3553 27.4289L19.6501 27.1935C20.1261 26.8165 20.5971 26.4428 21.0596 26.0724C22.73 24.7324 24.663 23.1405 26.3418 21.486C28.1208 19.8441 29.5873 17.9097 30.6737 15.772C31.2361 14.613 31.5377 13.3487 31.5546 12.068C31.5579 11.3327 31.4095 10.6043 31.1183 9.92571C30.827 9.24712 30.3988 8.63212 29.8588 8.11704C28.7258 7.04686 27.2035 6.45514 25.6235 6.47081C24.6703 6.46294 23.7262 6.65117 22.8531 7.02314C21.9801 7.3951 21.198 7.94238 20.5581 8.62901L18 11.4934L15.4419 8.62901C14.802 7.94238 14.0199 7.3951 13.1469 7.02314C12.2739 6.65117 11.3297 6.46294 10.3765 6.47081Z" fill="#038C65"/>
</svg>
